\relax 
\@writefile{toc}{\contentsline {section}{Problem 1: Analysis of gene expression data}{2}}
\@writefile{toc}{\contentsline {subsection}{1.1}{2}}
\@writefile{toc}{\contentsline {subsection}{1.2}{2}}
\providecommand*\caption@xref[2]{\@setref\relax\@undefined{#1}}
\newlabel{fig:dist}{{1a}{3}}
\newlabel{sub@fig:dist}{{a}{3}}
\newlabel{fig:profile}{{1b}{3}}
\newlabel{sub@fig:profile}{{b}{3}}
\newlabel{fig:cal}{{1c}{3}}
\newlabel{sub@fig:cal}{{c}{3}}
\@writefile{lof}{\contentsline {figure}{\numberline {1}{\ignorespaces Analysis of gene expression data\relax }}{3}}
\newlabel{fig:expression}{{1}{3}}
\@writefile{toc}{\contentsline {section}{Problem 2: Analysis of flow cytometry data}{4}}
\@writefile{lof}{\contentsline {figure}{\numberline {2}{\ignorespaces The high coefficient of variation in particle 401 is driven by extreme outliers around the mean value.\relax }}{4}}
\newlabel{fig:minipage1}{{2}{4}}
\@writefile{lof}{\contentsline {figure}{\numberline {3}{\ignorespaces Most linear models have very low $r^2$ values. 4 particle classes have $r^2$ values above 0.15 and were candidates for further investigation.\relax }}{4}}
\newlabel{fig:minipage2}{{3}{4}}
\@writefile{lof}{\contentsline {figure}{\numberline {4}{\ignorespaces The particle classes with the highest $r^2$ values show a negative trend of log2 intensity with increased time. It would be worth evaluating these particle classes for sample drift, but the majority of signals are stable over time.\relax }}{5}}
\@writefile{toc}{\contentsline {section}{Problem 3: Regression modeling of gene expression data}{6}}
\@writefile{lof}{\contentsline {figure}{\numberline {5}{\ignorespaces Distribution of the RMSE values for all linear regression models.\relax }}{6}}
\newlabel{fig:minipage1}{{5}{6}}
\@writefile{lof}{\contentsline {figure}{\numberline {6}{\ignorespaces Distribution of $r^2$ values for all linear regression models.\relax }}{6}}
\newlabel{fig:minipage2}{{6}{6}}
\@writefile{toc}{\contentsline {section}{Problem 4: Shell scripting}{7}}
\newlabel{LastPage}{{}{7}}
\xdef\lastpage@lastpage{7}
\gdef\lastpage@lastpageHy{}
